## Interface : 1234
## Title : LevelUpSkills
## Author : Drakax
## Notes : TODO : write
## Version : 1.0

Init.lua
SPELLS.lua
SPELLS_Group.lua
LevelUpShaman.lua
LevelUpDruid.lua
LevelUpWarlock.lua
LevelUpRogue.lua
LevelUpWarrior.lua
LevelUpHunter.lua
LevelUpPriest.lua
LevelUpPaladin.lua
LevelUpMage.lua
LevelUpCore.lua